[Event "?"]
[Site "?"]
[Date "????.??.??"]
[Round "?"]
[White "?"]
[Black "?"]
[Result "*"]
[FEN "5k2/6p1/4K1P1/5P2/8/8/8/8 w - - 0 1"]

{White can win the position given in the diagram by playing:} 
1.Kd7 
    ( {In this position White cannot win by playing} 1.f6 {because Black
    plays, not gxf6, which would lose, but} 1...Kg8 {and if then} 2.fxg7 
        ( {If} 2.f7+ Kf8 {and White will never be able to Queen his Pawn without losing it.} )
        ( {If} 2.Ke7 gxf6 3.Kxf6 Kf8 {and draws.} )
    2...Kxg7 {and draws, as shown in previous case.} )
1...Kg8 2.Ke7 Kh8 3.f6 gxf6 
    ( 3...Kg8 4.f7+ Kh8 5.f8=Q# )
4.Kf7 f5 5.g7+ Kh7 6.g8=Q+ Kh6 7.Qg6# *

