[Event "?"]
[Site "?"]
[Date "????.??.??"]
[Round "?"]
[White "New game"]
[Black "?"]
[Result "*"]
[SetUp "1"]
[FEN "2q2rk1/1b3ppp/pp6/2p5/2P1N3/PP1Q4/1B3PPP/6K1 w - - 0 0"]
[PlyCount "5"]

1. Nf6+ gxf6 {Forced, otherwise Q X h7 mates} 2. Qg3+ Kh8 3. Bxf6# *

