[Event "?"]
[Site "?"]
[Date "????.??.??"]
[Round "?"]
[White "?"]
[Black "?"]
[Result "1-0"]
[SetUp "1"]
[FEN "k7/8/1K1N4/7p/7N/8/8/8 w - - 0 1"]
[PlyCount "9"]

1. Ng6 h4 {White cannot take the pawn because the game will be drawn as
explained before.} 2. Ne5 h3 3. Nc6 h2 4. Nb5 h1=Q 5. Nc7# 1-0

