[Event "Chapter 1.5 - Modern Ideas in Chess"]
[Site "?"]
[Date "????.??.??"]
[Round "?"]
[White "Schulten"]
[Black "Morphy, Paul "]
[Result "0-1"]

1. e4 e5 2. f4 d5 3. exd5 e4 4. Nc3 Nf6 5. d3 Bb4 6. Bd2 e3 { Opening the King's
file}  7. Bxe3 O-O 8. Bd2 Bxc3 9. bxc3 Re8+ 10. Be2 Bg4 11. c4 c6 $1 {
Foreshadowing the opening of the Queen's file.}  12. dxc6 Nxc6 13. Kf1 { Up to
this point Morphy ad played on positional lines according to his general
principles. But now comes combination play with accurately thought out moves of
a compelling force.}  13... Rxe2 14. Nxe2 Nd4 15. Qb1 Bxe2+ 16. Kf2 Ng4+ 17.
Kg1 { Black forces mate in seven moves.}  17... Nf3+ 18. gxf3 Qd4+ 19. Kg2 Qf2+
20. Kh3 Qxf3+ 21. Kh4 Nh6 22. h3 Nf5+ 23. Kg5 Qh5#  0-1

