[Event "?"]
[Site "Buenos Aires"]
[Date "1911.05.26"]
[Round "?"]
[White "Capablanca"]
[Black "Molina Carranza"]
[Result "1-0"]
[EventCountry "ARG"]
[SetUp "1"]
[FEN "r1bq1rk1/pp2nppp/4p3/2n5/8/2NBPN2/PP3PPP/R2Q1RK1 w - - 0 1"]

1.Bxh7+ Kxh7 2.Ng5+ Kg6 {Best.}
    ( {If}2...Kh6 3.Nxf7+ {wins the Queen})
    ( {and if}2...Kg8 3.Qh5 {with an irresistible attack.})
3.Qg4 f5 4.Qg3 Kh6 {White finally won.} 1-0

