[Event "?"]
[Site "New York, NY"]
[Date "1909.04.29"]
[Round "?"]
[White "Capablanca"]
[Black "Marshall"]
[Result "1-0"]
[EventCountry "USA"]
[SetUp "1"]
[FEN "3q1kn1/r5p1/1ppr1pQn/p2ppP2/P3P2R/1BPPB3/1P3PK1/7R w - - 0 1"]
[Annotator "Edoardo Batini"]

1.Rxh6! gxh6 2.Bxh6+ Ke7
    ( {If}2...Nxh6 3.Rxh6 {and Black would be helpless.})
3.Qh7+ Ke8 4.Qxg8+ Kd7 5.Qh7+ Qe7 6.Bf8 Qxh7 7.Rxh7+ Ke8 8.Rxa7
{and Black resigns.} 1-0

