[Event "?"]
[Site "?"]
[Date "????.??.??"]
[Round "?"]
[White "Breyer"]
[Black "Havasi"]
[Result "*"]

1.d4 Nf6 2.Nd2 d5 3.e3 {Breyer, in close games, likes his Bishops to keep behind his chain of pawns. Therefore he avoids early exchanges and can prepare undisturbed for the attack. It is surprising in his games how, when the decisive break through occurs, the pieces which had appeared shut in, suddenly become alive. One should compare with regard to this, Tartakower's picture of Breyer's method of play in Chapter IX of his book.} 3...Bf5 4.c4 c6 5.Ngf3 e6 6.Be2 Bd6 7.c5! Bc7 8.b4 Nbd7 9.Bb2 {White next thwarts Black's e5 and with b5 and Qa4 intends to attack c6 which is difficult to defend.} 9...Ne4 10.Nxe4 dxe4 {The move that was made at least looks very good. The Knight at d7 is to be brought to d5; besides White dare not castle on the King's side without exposing himself to an overwhelming attack. Breyer by the following play takes advantage of the unfavourable position of the Bishop at f5 in a manner as beautiful as it is original.} 
    ( {After} 10...Bxe4 {White continues his plan with} 11.b5 )
11.Nd2 Nf6 12.g4 Bg6 13.h4 h5 14.gxh5! Nxh5 
    ( {If the Bishop takes,} 14...Bxh5 {the Pawn at e4 is lost.} )
15.Qc2 Nf6 
    ( {After} 15...f5 {White would get on to the Knight file with advantage.} )
16.O-O-O Bf5 {in order to continue with Ng4.} 17.Rdg1 Kf8 18.h5! a5 
    ( {If in preparation for this move} 18...b5 {is played, White} 19.cxb6 {moves the King to b1 and attacks further the weak pawn at c6 with a Rook at c1.} )
19.b5 {A pawn sacrifice of deep calculation after the acceptance of which White forces a win in brilliant style.} 19...cxb5 20.Bxb5 Rxh5 21.d5 Rxh1 22.Rxh1 Kg8 23.d6 Bb8 24.Nc4 Ba7 25.Bd4 Rc8 26.f4!! Bxc5 
    ( {If} 26...exf3 27.Qh2 Nh7 28.Qg3 Bg6 29.Qe5 {etc.} )
27.d7! Nxd7 28.Qh2 f6 29.Bxc5 Nxc5 30.Qh8+ Kf7 31.Be8+ {wins the Queen and the game.} *

