[Event "Chapter 16 - Modern Ideas in Chess"]
[Site "Germany"]
[Date "1908.??.??"]
[Round "4"]
[White "Tarrasch, Siegbert"]
[Black "Lasker, Emanuel"]
[Result "0-1"]
[ECO "C66"]

1.e4 e5 2.Nf3 Nc6 3.Bb5 Nf6 4.O-O d6 5.d4 Bd7 6.Nc3 Be7 7.Re1 exd4 8.Nxd4 Nxd4
9.Qxd4 Bxb5 10.Nxb5 O-O 11.Bg5 {This is in accordance with the old theory. As
all the other pieces have been developed White takes it as a matter of course
that he ought to bring the Queen's Bishop and the Queen's Rook into play. The
essential element of the position is due to the centre pawn formation at e4
and d6. By means of it White can get his Knight on to the fifth rank and it
would be well protected.} ( {In order to avail himself of that possibility
Capablanca in the same position (see game Capablanca - Amateur § 27) played}
11.Qc3 {so as to land the Knight on f5 via d4 on the favourable square f5.} )
11...Re8 12.Rad1 {Again a developing move but forming no part of any scheme.
In this game, however, that is not so obvious.  Take the following similar
game already discussed, viz.:  Tarrasch - Schlechter (Leipzig, 1894) 1. e4,
e5; 2. Nf3, Nc6; 3. Bb5, Nf6; 4. O-O, d6; 5.  d4 Bd7; 6. Nc3, Be7; 7 Re1,
exd4; 8 Nxd4, Nxd4; 9. Bxd7+, Qxd7. Faulty development. It would have been
right to take with the already developed Knight at f6 and thereby to have
freed the Bishop at e7 and have created an open file for the Rook. 10. Qxd4,
O-O; 11. b3, Re8; 12. Bb2, Bf8; 13. Rad1?  (This shows itself at once to be
time lost. But this move which develops the last undeveloped piece had
formerly been considered so much a matter of course that none of the critics
make it the subject of remark). 13... Qc6; 14. Rd3, Re6; 15. h3, Rae8; 16. Rd
e3, etc.} 12...h6 13.Bh4 Nd7 14.Bxe7 Rxe7 15.Qc4 Re5!! 16.Nd4 Rc5! 17.Qb3 Nb6
18.f4 Qf6 19.Qf3 Re8 {An aimless developing move of the old style. A better
move was a6. If one compares the continuation of the game one finds that R-K
sq effects nothing and later on the R at e8 has to go to d8.} 20.c3 a5 21.b3
a4 22.b4 Rc4 23.g3 Rd8 24.Re3 c5 25.Nb5 cxb4 26.Rxd6 Rxd6 27.e5 Rxf4 28.gxf4
Qg6+ 0-1

